UAI,Nom établissement,Nom de la radio,Contact,Lien sur webdiff,projet,Latitude,longitude,type établissement,Public Privé,Ville,Département
0390923S,Collège le Rochat,,,,,46.4896076947742,6.06967005287404,Collège,Public,Les Rousses,39
0391035N,Collège du Plateau,,,,,46.3924283480241,5.78865344898117,Collège,Public,Lavans-lès-Saint-Claude,39
0390016F,Collège Gustave Eiffel,,,,,47.1469917449159,5.76914958742372,Collège,Public,Fraisans,39
0390022M,Collège Aristide Briand,,,,,46.6696894133752,5.55084020500401,Collège,Public,Lons-le-Saunier,39
0390009Y,Collège des Lacs,,,,,46.5742104122886,5.75528984979416,Collège,Public,Clairvaux-les-Lacs,39
0700785Y,Collège Jean Macé,,,,,47.6192297937204,6.159744954321,Collège,Public,Vesoul,70
0700787A,Collège Pierre et Marie Curie,,,,,47.5835136472189,6.76208744957492,Collège,Public,Héricourt,70
0700894S,Collège Château Rance,,,,,47.665605074205,5.97044496340915,Collège,Public,Scey-sur-Saône-et-Saint-Albin,70
0700788B,Collège André Masson,,,,,47.8849476932744,6.28099755763251,Collège,Public,Saint-Loup-sur-Semouse,70
0700013J,Collège Raymond Gueux,,,,,47.4056732001713,5.80917262902375,Collège,Public,Gy,70
0900009W,Collège Val de Rosemont,,,,,47.7410428477922,6.83492510564808,Collège,Public,Giromagny,90
0900011Y,Collège Camille Claudel,,,,,47.610331678563,7.00224197719024,Collège,Public,Montreux-Château,90
0900351T,Collège Simone Signoret,,,,,47.6294464517642,6.8401440194967,Collège,Public,Belfort,90
0900295G,Collège Vauban,,,,,47.640149209831,6.88067944973028,Collège,Public,Belfort,90
0250056A,Collège Jouffroy d'Abbans,,,,,47.512047196475,6.84144974020841,Collège,Public,Sochaux,25
0251556F,Collège André Boulloche,,,,,47.4918500404622,6.76126991685013,Collège,Public,Bart,25
0251375J,Collège des Quatre Terres,,,,,47.4434492961439,6.88436066180405,Collège,Public,Hérimoncourt,25
0210015C,Lycée général et technologique Carnot,,,,,47.3240944612801,5.04777064484143,Lycée,Public,Dijon,21
0580582T,Lycée professionnel agricole du Morvan,,,,,47.0598504027714,3.9387445456138,Lycée,Public,Château-Chinon,58
0211428N,Établissement régional d'enseignement adapté Alain Fournier,,,,,47.0413646512419,4.83762013611343,EREA,Public,Beaune,21
0711050F,Établissement régional d'enseignement adapté Claude Brosse,Webradio EREA,aurelie.bleton@ac-dijon.fr,https://webdiff.region-academique-bfc.fr/podcasts/webradio-erea/,Webradio établissement,46.3066400300127,4.814996371013,EREA,Public,Charnay-lès-Mâcon,71
0210030U,Collège Émile Lepitre,,,,,47.8401719755479,4.36417963831343,Collège,Public,Laignes,21
0211357L,Collège Jean-Philippe Rameau,,,,,47.3228076262053,4.99474944596114,Collège,Public,Dijon,21
0711451S,Collège Olivier de la Marche,,,,,46.8160416949554,5.05910271555512,Collège,Public,Saint-Martin-en-Bresse,71
0710536X,Collège Jacques Prévert,,,,,46.8131083097199,4.84574000627455,Collège,Public,Chalon-sur-Saône,71
0580002M,Collège Champ de la Porte,,,,,46.8787581578926,3.66073986491375,Collège,Public,Cercy-la-Tour,58
0710067m,Collège Les Chênes Rouges,,,,,46.7041807207435,4.98234679721188,Collège,Public,Saint-Germain-du-Plain,71
0711071D,Collège Jean Moulin,,,,,46.2765482617214,4.03820821475426,Collège,Public,Marcigny,71
0211230Y,Collège Jules Ferry,,,,,47.0226590639902,4.84427003688194,Collège,Public,Beaune,21
0211137X,Collège Camille Claudel,,,,,47.3028334511692,5.12827018702632,Collège,Public,Chevigny-Saint-Sauveur,21
0211227V,Collège Le Parc,,,,,47.3101956654068,5.03439976538512,Collège,Public,Dijon,21
0211525U,Collège Carnot,,,,,47.3234702636166,5.04839048958367,Collège,Public,Dijon,21
0211389W,Collège Clos de Pouilly,,,,,47.342125984757,5.0534203550765,Collège,Public,Dijon,21
0211164B,Collège Albert Camus,,,,,47.2388272135094,5.22736985909095,Collège,Public,Genlis,21
0580029S,Collège François Mitterrand des Grands Lacs du Morvan,,,,,47.2168041454696,4.02540058746151,Collège,Public,Montsauche-les-Settons,58
0580542Z,Collège Les Loges,,,,,46.9848723458417,3.13256018634092,Collège,Public,Nevers,58
0580028R,Collège Jean Rostand,,,,,46.8917418754738,3.46599000712357,Collège,Public,La Machine,58
0580018E,Collège Henri Clément,,,,,47.3676022050558,3.12396951837767,Collège,Public,Donzy,58
0580035Y,Collège Les Guilleraults,,,,,47.2815586317514,2.96477993358735,Collège,Public,Pouilly-sur-Loire,58
0580026N,Collège Paul Barreau,,,,,47.2775113269475,3.82178973822914,Collège,Public,Lormes,58
0580682B,Collège Les Courlis,,,,,46.9808934267405,3.19007989966977,Collège,Public,Nevers,58
0891093E,Collège Montpezat,,,,,48.1981504497014,3.28566004214286,Collège,Public,Sens,89
0891054M,Collège Saint-Joseph-La Salle,,,,,47.812104789073,3.55964344128001,Collège,Privé,Auxerre,89
0900013A,Collège Michel Colucci,,,,,47.7350243865437,6.97104605809692,Collège,Public,Rougemont-le-Château,90
0251573Z,Collège Victor Hugo,,,,,47.2376910952641,6.02068946151655,Collège,Public,Besançon,25
0251587P,Collège Saint-Joseph,,,,,47.2456206883989,6.03373942683616,Collège,Privé,Besançon,25
0250005V,Collège René Cassin,,,,,47.3507684692083,6.352530612761,Collège,Public,Baume-les-Dames,25
0251397H,Collège les Hautes Vignes,,,,,47.4716576556217,6.85640985034442,Collège,Public,Seloncourt,25
0251055L,Collège Sainte-Marie,,,,,47.1082570973386,6.14076950218047,Collège,Privé,Ornans,25
0251590T,Collège privé les Augustins,,,,,46.9021810561426,6.35913023354466,Collège,Privé,Pontarlier,25
0251063V,Collège privé François Cartannaz,,,,,47.254807890783,5.95419057167578,Collège,Privé,Pirey,25
